{
    "=" : "=-func",
    "store" : "add-var-to-table",
    "retrieve" : "get-var-from-table",
    "launch" : "launch-driver",
    "setup" : "setup-browser",
    "open" : "open-site",
    "wait-exists" : "wait-element-exists",
    "wait-visible" : "wait-element-visible",
    "wait" : "wait-seconds",
    "select" : "select-option",
    "enter-text" : "enter-text",
    "get-value" : "get-element-cur-value",
    "get-url" : "get-page-url",
    "get-hostname" : "get-page-hostname",
    "get-domain" : "get-page-domain",
    "get-title" : "get-page-title",
    "get-source" : "get-page-source",
    "click" : "click-element",
    "press-enter-on" : "press-enter-on",
    "run-javascript" : "execute-javascript",
    "set-javascript-timeout" : "set-browser-script-timeout",
    "open-window" : "open-new-window",
    "switch-window" : "switch-to-window",
    "close-window" : "close-browser-window",
    "close" : "close-browser",
    "http?" : "http?",
    "https?" : "https?",
    "captcha?" : "captcha?",
    "combine-strings" : "str",
    "read-term-input" : "get-user-input",
    "read-term-password" : "get-user-password",
    "confirm" : "wait-for-confirmation",
    "notify" : "println",
    "test1" : "test1",
    "test2" : "test2",
    "test3" : "test3"
}
