{

    "setup" : ["firefox", "127.0.0.1", 4444],
    "open" : "https://middleware.idxbroker.com",
    "wait-exists" : ["tag", "input", "id", "1-email"],
    "enter-text" : [{"read-term-input" : "Middleware Username: "}, "tag", "input", "id", "1-email"],
    "click" : ["tag", "button", "name", "submit"],
    "when" : [{"=" : [{"get-domain" : ""}, "google.com"]},
	      {"click" : ["tag", "button", "jsname", "LgbsSe"],
	       "when" : [{"captcha?" : ""},
			 {"confirm" : "There is a captcha on this page, please complete it before proceeding."}],
	       "enter-text" : [{"read-term-password" : "Gmail Password: "}, "tag", "input", "type", "password"],
	       "click" : ["tag", "button", "jsname", "LgbsSe"]}],
    "wait-exists" : ["tag", "body", "ng-app", "idx"],
    "open" : "https://middleware.idxbroker.com/mgmt/client-beta",
    "click" : ["tag", "input", "id", "program-0"],
    "enter-text" : [{"store" : ["aid", {"read-term-input" : "Enter user AID: "}]}, "tag", "textarea", "id", "beta-account-input"],
    "click" : ["tag", "button", "fn/has-text", "Save"],
    "store" : ["client-mgmt-base", {"combine-strings" : ["https://middleware.idxbroker.com/mgmt/clients/", {"retrieve" : "aid"}]}],
    "open" : {"combine-strings" : [{"retrieve" : "client-mgmt-base"}, "/notes"]},
    "notify" : "Please read the notes and make sure no special actions are required.",
    "read-term-input" : "Press 'enter' whenever you are ready to proceed",
    "open" : {"combine-strings" : [{"retrieve" : "client-mgmt-base"}, "/edit"]},
    "wait-exists" : ["tag", "input", "id", "sslRequestedAt-0"],
    "if" : [{"https?" : {"get-value" : ["tag", "input", "id", "website"]}},
	    {"click" : ["tag", "input", "id", "sslRequestedAt-0"]},
	    {"click" : ["tag", "input", "id", "sslRequestedat-1"]}],
    "click" : ["tag", "button", "id", "editClientInfoButton"]
    

}
